name,category,qty,price
product 1,cat 1,25,41364
product 2,cat 2,11,32892
product 3,cat 3,47,21081
product 4,cat 1,17,13347
product 5,cat 2,37,93201
product 6,cat 3,18,63322
product 7,cat 1,15,86840
product 8,cat 2,19,98070
product 9,cat 3,49,17131
product 10,cat 1,22,26610
product 11,cat 2,28,56658
product 12,cat 3,48,36107
product 13,cat 1,38,83193
product 14,cat 2,17,98079
product 15,cat 3,16,73171
product 16,cat 1,13,59496
product 17,cat 2,29,55805
product 18,cat 3,24,31783
product 19,cat 1,12,94634
product 20,cat 2,13,47188
product 21,cat 3,39,27388
product 22,cat 1,27,37395
product 23,cat 2,38,28947
product 24,cat 3,38,93156
product 25,cat 1,48,23943
product 26,cat 2,38,50161
product 27,cat 3,49,14298
product 28,cat 1,14,95073
product 29,cat 2,30,90330
product 30,cat 3,50,90183
product 31,cat 1,15,96454
product 32,cat 2,14,85477
product 33,cat 3,42,87953
product 34,cat 1,28,41451
product 35,cat 2,30,92399
product 36,cat 3,38,30721
product 37,cat 1,23,23917
product 38,cat 2,22,74760
product 39,cat 3,43,29116
product 40,cat 1,10,48557
product 41,cat 2,24,74544
product 42,cat 3,16,74677
product 43,cat 1,21,75649
product 44,cat 2,25,63194
product 45,cat 3,40,20790
product 46,cat 1,29,43884
product 47,cat 2,23,98057
product 48,cat 3,46,72076
product 49,cat 1,18,76650
product 50,cat 2,49,38505
product 51,cat 3,43,33586
product 52,cat 1,24,57472
product 53,cat 2,14,34193
product 54,cat 3,17,64230
product 55,cat 1,25,19952
product 56,cat 2,21,83120
product 57,cat 3,16,21559
product 58,cat 1,23,10249
product 59,cat 2,19,26132
product 60,cat 3,40,10463
product 61,cat 1,28,21027
product 62,cat 2,36,52168
product 63,cat 3,41,80330
product 64,cat 1,48,72573
product 65,cat 2,27,57666
product 66,cat 3,12,70791
product 67,cat 1,32,35329
product 68,cat 2,26,86897
product 69,cat 3,18,42605
product 70,cat 1,27,92006
product 71,cat 2,22,90658
product 72,cat 3,21,50042
product 73,cat 1,42,93751
product 74,cat 2,38,68802
product 75,cat 3,32,48503
product 76,cat 1,14,90434
product 77,cat 2,41,44926
product 78,cat 3,39,43569
product 79,cat 1,32,74875
product 80,cat 2,16,44162
product 81,cat 3,30,75413
product 82,cat 1,14,73092
product 83,cat 2,13,51848
product 84,cat 3,12,35511
product 85,cat 1,45,29552
product 86,cat 2,29,17264
product 87,cat 3,35,90327
product 88,cat 1,15,46305
product 89,cat 2,13,29924
product 90,cat 3,34,74372
product 91,cat 1,17,15201
product 92,cat 2,48,99089
product 93,cat 3,37,80747
product 94,cat 1,49,88720
product 95,cat 2,16,68685
product 96,cat 3,45,63755
product 97,cat 1,26,43031
product 98,cat 2,16,80561
product 99,cat 3,38,11552
product 100,cat 1,39,37103
product 101,cat 2,29,79919
product 102,cat 3,36,30580
product 103,cat 1,48,43350
product 104,cat 2,30,20781
product 105,cat 3,32,87996
product 106,cat 1,13,95027
product 107,cat 2,43,56085
product 108,cat 3,47,94604
product 109,cat 1,27,72169
product 110,cat 2,10,37902
product 111,cat 3,40,20787
product 112,cat 1,33,37344
product 113,cat 2,32,52671
product 114,cat 3,35,62499
product 115,cat 1,27,34916
product 116,cat 2,16,77985
product 117,cat 3,38,74480
product 118,cat 1,39,57364
product 119,cat 2,23,88615
product 120,cat 3,29,65767
product 121,cat 1,27,67744
product 122,cat 2,44,48832
product 123,cat 3,45,86822
product 124,cat 1,19,67476
product 125,cat 2,48,69329
product 126,cat 3,33,87060
product 127,cat 1,47,47067
product 128,cat 2,37,79390
product 129,cat 3,29,82871
product 130,cat 1,49,78116
product 131,cat 2,20,69268
product 132,cat 3,43,79991
product 133,cat 1,22,76653
product 134,cat 2,12,46119
product 135,cat 3,38,58540
product 136,cat 1,19,84169
product 137,cat 2,17,99521
product 138,cat 3,20,92470
product 139,cat 1,39,76824
product 140,cat 2,31,83911
product 141,cat 3,39,44847
product 142,cat 1,31,73320
product 143,cat 2,46,87127
product 144,cat 3,37,27954
product 145,cat 1,37,89012
product 146,cat 2,32,17163
product 147,cat 3,16,18311
product 148,cat 1,21,31628
product 149,cat 2,32,67970
product 150,cat 3,48,58546
product 151,cat 1,32,45953
product 152,cat 2,27,75412
product 153,cat 3,48,12020
product 154,cat 1,49,49001
product 155,cat 2,47,11664
product 156,cat 3,43,40181
product 157,cat 1,40,85002
product 158,cat 2,16,54724
product 159,cat 3,29,17946
product 160,cat 1,19,58956
product 161,cat 2,46,34578
product 162,cat 3,31,71697
product 163,cat 1,18,22730
product 164,cat 2,42,98024
product 165,cat 3,10,86076
product 166,cat 1,27,55736
product 167,cat 2,11,18061
product 168,cat 3,28,66525
product 169,cat 1,18,63249
product 170,cat 2,13,15135
product 171,cat 3,11,93023
product 172,cat 1,46,72571
product 173,cat 2,17,57886
product 174,cat 3,42,29994
product 175,cat 1,18,53431
product 176,cat 2,43,33295
product 177,cat 3,17,12037
product 178,cat 1,44,86757
product 179,cat 2,28,24324
product 180,cat 3,22,55881
product 181,cat 1,43,39315
product 182,cat 2,38,81736
product 183,cat 3,34,30531
product 184,cat 1,47,62290
product 185,cat 2,48,39530
product 186,cat 3,26,33437
product 187,cat 1,34,17730
product 188,cat 2,17,18748
product 189,cat 3,33,51973
product 190,cat 1,10,25579
product 191,cat 2,27,75773
product 192,cat 3,19,73109
product 193,cat 1,26,30195
product 194,cat 2,48,14598
product 195,cat 3,18,70923
product 196,cat 1,45,85691
product 197,cat 2,48,74296
product 198,cat 3,23,18953
product 199,cat 1,20,30666
product 200,cat 2,38,36957
product 201,cat 3,21,41540
product 202,cat 1,15,48515
product 203,cat 2,25,68539
product 204,cat 3,23,21320
product 205,cat 1,40,18295
product 206,cat 2,39,54402
product 207,cat 3,22,78207
product 208,cat 1,49,57303
product 209,cat 2,26,95865
product 210,cat 3,12,69270
product 211,cat 1,21,37767
product 212,cat 2,50,17337
product 213,cat 3,41,90695
product 214,cat 1,14,66990
product 215,cat 2,29,66739
product 216,cat 3,29,31911
product 217,cat 1,38,84621
product 218,cat 2,38,50582
product 219,cat 3,25,99330
product 220,cat 1,23,69273
product 221,cat 2,42,46206
product 222,cat 3,15,36828
product 223,cat 1,23,16819
product 224,cat 2,21,45262
product 225,cat 3,46,25968
product 226,cat 1,44,98857
product 227,cat 2,31,17718
product 228,cat 3,28,48965
product 229,cat 1,11,68536
product 230,cat 2,49,93279
product 231,cat 3,37,64518
product 232,cat 1,12,25635
product 233,cat 2,16,46036
product 234,cat 3,21,77657
product 235,cat 1,41,38134
product 236,cat 2,14,40702
product 237,cat 3,25,24443
product 238,cat 1,20,16061
product 239,cat 2,38,97658
product 240,cat 3,37,97589
product 241,cat 1,15,43103
product 242,cat 2,28,71947
product 243,cat 3,50,35651
product 244,cat 1,22,71899
product 245,cat 2,31,72150
product 246,cat 3,28,17820
product 247,cat 1,23,36397
product 248,cat 2,22,28789
product 249,cat 3,35,17138
product 250,cat 1,20,16446
